…
``` r
s_ex
```

    ## # A tibble: 94 x 8
    ##    PubMedID Organism     uniprot Temperature pH    kcat      Ki     Km       
    ##    <chr>    <chr>        <chr>   <chr>       <chr> <list>    <list> <list>   
    ##  1 15096205 Mus musculus P00329  25.0        7.5   <NULL>    <NULL> <chr [1]>
    ##  2 15096205 Mus musculus P00329  25.0        7.5   <chr [1]> <NULL> <NULL>   
    ##  3 15096205 Mus musculus P00329  25.0        7.5   <NULL>    <NULL> <NULL>   
    ##  4 15096205 Mus musculus P00329  25.0        7.5   <NULL>    <NULL> <chr [1]>
    ##  5 15096205 Mus musculus P00329  25.0        7.5   <chr [1]> <NULL> <NULL>   
    ##  6 15096205 Mus musculus Q9QYY9  25.0        7.5   <NULL>    <NULL> <NULL>   
    ##  7 15096205 Mus musculus Q9QYY9  25.0        7.5   <NULL>    <NULL> <chr [1]>
    ##  8 15096205 Mus musculus Q9QYY9  25.0        7.5   <chr [1]> <NULL> <NULL>   
    ##  9 15096205 Mus musculus Q9QYY9  25.0        7.5   <chr [1]> <NULL> <NULL>   
    ## 10 15096205 Mus musculus Q9QYY9  25.0        7.5   <NULL>    <NULL> <chr [1]>
    ## # … with 84 more rows
…
